%YAML 1.1
%TAG !u! tag:unity3d.com,2011:
--- !u!114 &11400000
MonoBehaviour:
  m_ObjectHideFlags: 0
  m_CorrespondingSourceObject: {fileID: 0}
  m_PrefabInstance: {fileID: 0}
  m_PrefabAsset: {fileID: 0}
  m_GameObject: {fileID: 0}
  m_Enabled: 1
  m_EditorHideFlags: 0
  m_Script: {fileID: 11500000, guid: d895a22b6a6a22e479b41c4e74e10763, type: 3}
  m_Name: Shape
  m_EditorClassIdentifier: 
  planetRadius: 14.73
  noiseLayerList:
  - useFirstLayerAsMask: 0
    noiseSettings:
      filterType: 0
      simpleNoiseSettings:
        strength: 0.12
        baseRoughness: 0.44
        roughness: 1.34
        persistence: 1.2
        centre: {x: 0, y: 0, z: 0}
        numberLayer: 6
        minValue: 4.39
      rigideNoiseSettings:
        strength: 1
        baseRoughness: 1
        roughness: 2
        persistence: 0.5
        centre: {x: 0, y: 0, z: 0}
        numberLayer: 3
        minValue: 0
        weightMultiplier: 0.8
    enabled: 1
  - useFirstLayerAsMask: 1
    noiseSettings:
      filterType: 0
      simpleNoiseSettings:
        strength: 0.11
        baseRoughness: 0.86
        roughness: 2.37
        persistence: 1.08
        centre: {x: 3.43, y: 1.8, z: 4.11}
        numberLayer: 5
        minValue: 1.02
      rigideNoiseSettings:
        strength: 1
        baseRoughness: 1
        roughness: 2
        persistence: 0.5
        centre: {x: 0, y: 0, z: 0}
        numberLayer: 3
        minValue: 0
        weightMultiplier: 0.8
    enabled: 1
  - useFirstLayerAsMask: 1
    noiseSettings:
      filterType: 1
      simpleNoiseSettings:
        strength: 1
        baseRoughness: 1
        roughness: 2
        persistence: 0.5
        centre: {x: 0, y: 0, z: 0}
        numberLayer: 3
        minValue: 0
      rigideNoiseSettings:
        strength: 1.07
        baseRoughness: 0.85
        roughness: 1.1
        persistence: 0.47
        centre: {x: 0, y: 0, z: 0}
        numberLayer: 4
        minValue: 3
        weightMultiplier: 0.72
    enabled: 1
